xpm_cdc.sv,systemverilog,xil_defaultlib,../../../../../../../../../../Xilinx/Vivado/2017.4/data/ip/xpm/xpm_cdc/hdl/xpm_cdc.sv,incdir="../../../../project_1.srcs/sources_1/bd/Histo1/ipshared/4868"incdir="../../../../project_1.srcs/sources_1/bd/Histo1/ipshared/ec67/hdl"incdir="../../../../project_1.srcs/sources_1/bd/Histo1/ipshared/02c8/hdl/verilog"incdir="../../../../project_1.srcs/sources_1/bd/Histo1/ipshared/1313/hdl"incdir="../../../../project_1.srcs/sources_1/bd/Histo1/ipshared/4868"incdir="../../../../project_1.srcs/sources_1/bd/Histo1/ipshared/ec67/hdl"incdir="../../../../project_1.srcs/sources_1/bd/Histo1/ipshared/02c8/hdl/verilog"incdir="../../../../project_1.srcs/sources_1/bd/Histo1/ipshared/1313/hdl"
xpm_fifo.sv,systemverilog,xil_defaultlib,../../../../../../../../../../Xilinx/Vivado/2017.4/data/ip/xpm/xpm_fifo/hdl/xpm_fifo.sv,incdir="../../../../project_1.srcs/sources_1/bd/Histo1/ipshared/4868"incdir="../../../../project_1.srcs/sources_1/bd/Histo1/ipshared/ec67/hdl"incdir="../../../../project_1.srcs/sources_1/bd/Histo1/ipshared/02c8/hdl/verilog"incdir="../../../../project_1.srcs/sources_1/bd/Histo1/ipshared/1313/hdl"incdir="../../../../project_1.srcs/sources_1/bd/Histo1/ipshared/4868"incdir="../../../../project_1.srcs/sources_1/bd/Histo1/ipshared/ec67/hdl"incdir="../../../../project_1.srcs/sources_1/bd/Histo1/ipshared/02c8/hdl/verilog"incdir="../../../../project_1.srcs/sources_1/bd/Histo1/ipshared/1313/hdl"
xpm_memory.sv,systemverilog,xil_defaultlib,../../../../../../../../../../Xilinx/Vivado/2017.4/data/ip/xpm/xpm_memory/hdl/xpm_memory.sv,incdir="../../../../project_1.srcs/sources_1/bd/Histo1/ipshared/4868"incdir="../../../../project_1.srcs/sources_1/bd/Histo1/ipshared/ec67/hdl"incdir="../../../../project_1.srcs/sources_1/bd/Histo1/ipshared/02c8/hdl/verilog"incdir="../../../../project_1.srcs/sources_1/bd/Histo1/ipshared/1313/hdl"incdir="../../../../project_1.srcs/sources_1/bd/Histo1/ipshared/4868"incdir="../../../../project_1.srcs/sources_1/bd/Histo1/ipshared/ec67/hdl"incdir="../../../../project_1.srcs/sources_1/bd/Histo1/ipshared/02c8/hdl/verilog"incdir="../../../../project_1.srcs/sources_1/bd/Histo1/ipshared/1313/hdl"
xpm_VCOMP.vhd,vhdl,xpm,../../../../../../../../../../Xilinx/Vivado/2017.4/data/ip/xpm/xpm_VCOMP.vhd,incdir="../../../../project_1.srcs/sources_1/bd/Histo1/ipshared/4868"incdir="../../../../project_1.srcs/sources_1/bd/Histo1/ipshared/ec67/hdl"incdir="../../../../project_1.srcs/sources_1/bd/Histo1/ipshared/02c8/hdl/verilog"incdir="../../../../project_1.srcs/sources_1/bd/Histo1/ipshared/1313/hdl"incdir="../../../../project_1.srcs/sources_1/bd/Histo1/ipshared/4868"incdir="../../../../project_1.srcs/sources_1/bd/Histo1/ipshared/ec67/hdl"incdir="../../../../project_1.srcs/sources_1/bd/Histo1/ipshared/02c8/hdl/verilog"incdir="../../../../project_1.srcs/sources_1/bd/Histo1/ipshared/1313/hdl"
ADC500MHz_Controller_v1_0.vhd,vhdl,xil_defaultlib,../../../bd/Histo1/ip/Histo1_ADC500MSPS_Controller_0_0/ipshared/c094/ADC500MHz_Controller_v1_0.vhd,incdir="../../../../project_1.srcs/sources_1/bd/Histo1/ipshared/4868"incdir="../../../../project_1.srcs/sources_1/bd/Histo1/ipshared/ec67/hdl"incdir="../../../../project_1.srcs/sources_1/bd/Histo1/ipshared/02c8/hdl/verilog"incdir="../../../../project_1.srcs/sources_1/bd/Histo1/ipshared/1313/hdl"incdir="../../../../project_1.srcs/sources_1/bd/Histo1/ipshared/4868"incdir="../../../../project_1.srcs/sources_1/bd/Histo1/ipshared/ec67/hdl"incdir="../../../../project_1.srcs/sources_1/bd/Histo1/ipshared/02c8/hdl/verilog"incdir="../../../../project_1.srcs/sources_1/bd/Histo1/ipshared/1313/hdl"
design_1_ADC500MHz_Controller_v1_0_0_0.vhd,vhdl,xil_defaultlib,../../../bd/Histo1/ip/Histo1_ADC500MSPS_Controller_0_0/src/design_1_ADC500MHz_Controller_v1_0_0_0/sim/design_1_ADC500MHz_Controller_v1_0_0_0.vhd,incdir="../../../../project_1.srcs/sources_1/bd/Histo1/ipshared/4868"incdir="../../../../project_1.srcs/sources_1/bd/Histo1/ipshared/ec67/hdl"incdir="../../../../project_1.srcs/sources_1/bd/Histo1/ipshared/02c8/hdl/verilog"incdir="../../../../project_1.srcs/sources_1/bd/Histo1/ipshared/1313/hdl"incdir="../../../../project_1.srcs/sources_1/bd/Histo1/ipshared/4868"incdir="../../../../project_1.srcs/sources_1/bd/Histo1/ipshared/ec67/hdl"incdir="../../../../project_1.srcs/sources_1/bd/Histo1/ipshared/02c8/hdl/verilog"incdir="../../../../project_1.srcs/sources_1/bd/Histo1/ipshared/1313/hdl"
design_1_clk_wiz_0_0_clk_wiz.v,verilog,xil_defaultlib,../../../bd/Histo1/ip/Histo1_ADC500MSPS_Controller_0_0/src/design_1_clk_wiz_0_0/design_1_clk_wiz_0_0_clk_wiz.v,incdir="../../../../project_1.srcs/sources_1/bd/Histo1/ipshared/4868"incdir="../../../../project_1.srcs/sources_1/bd/Histo1/ipshared/ec67/hdl"incdir="../../../../project_1.srcs/sources_1/bd/Histo1/ipshared/02c8/hdl/verilog"incdir="../../../../project_1.srcs/sources_1/bd/Histo1/ipshared/1313/hdl"incdir="../../../../project_1.srcs/sources_1/bd/Histo1/ipshared/4868"incdir="../../../../project_1.srcs/sources_1/bd/Histo1/ipshared/ec67/hdl"incdir="../../../../project_1.srcs/sources_1/bd/Histo1/ipshared/02c8/hdl/verilog"incdir="../../../../project_1.srcs/sources_1/bd/Histo1/ipshared/1313/hdl"
design_1_clk_wiz_0_0.v,verilog,xil_defaultlib,../../../bd/Histo1/ip/Histo1_ADC500MSPS_Controller_0_0/src/design_1_clk_wiz_0_0/design_1_clk_wiz_0_0.v,incdir="../../../../project_1.srcs/sources_1/bd/Histo1/ipshared/4868"incdir="../../../../project_1.srcs/sources_1/bd/Histo1/ipshared/ec67/hdl"incdir="../../../../project_1.srcs/sources_1/bd/Histo1/ipshared/02c8/hdl/verilog"incdir="../../../../project_1.srcs/sources_1/bd/Histo1/ipshared/1313/hdl"incdir="../../../../project_1.srcs/sources_1/bd/Histo1/ipshared/4868"incdir="../../../../project_1.srcs/sources_1/bd/Histo1/ipshared/ec67/hdl"incdir="../../../../project_1.srcs/sources_1/bd/Histo1/ipshared/02c8/hdl/verilog"incdir="../../../../project_1.srcs/sources_1/bd/Histo1/ipshared/1313/hdl"
util_ds_buf.vhd,vhdl,util_ds_buf_v2_01_a,../../../../project_1.srcs/sources_1/bd/Histo1/ipshared/e2ff/hdl/vhdl/util_ds_buf.vhd,incdir="../../../../project_1.srcs/sources_1/bd/Histo1/ipshared/4868"incdir="../../../../project_1.srcs/sources_1/bd/Histo1/ipshared/ec67/hdl"incdir="../../../../project_1.srcs/sources_1/bd/Histo1/ipshared/02c8/hdl/verilog"incdir="../../../../project_1.srcs/sources_1/bd/Histo1/ipshared/1313/hdl"incdir="../../../../project_1.srcs/sources_1/bd/Histo1/ipshared/4868"incdir="../../../../project_1.srcs/sources_1/bd/Histo1/ipshared/ec67/hdl"incdir="../../../../project_1.srcs/sources_1/bd/Histo1/ipshared/02c8/hdl/verilog"incdir="../../../../project_1.srcs/sources_1/bd/Histo1/ipshared/1313/hdl"
design_1_util_ds_buf_0_0.vhd,vhdl,xil_defaultlib,../../../bd/Histo1/ip/Histo1_ADC500MSPS_Controller_0_0/src/design_1_util_ds_buf_0_0/sim/design_1_util_ds_buf_0_0.vhd,incdir="../../../../project_1.srcs/sources_1/bd/Histo1/ipshared/4868"incdir="../../../../project_1.srcs/sources_1/bd/Histo1/ipshared/ec67/hdl"incdir="../../../../project_1.srcs/sources_1/bd/Histo1/ipshared/02c8/hdl/verilog"incdir="../../../../project_1.srcs/sources_1/bd/Histo1/ipshared/1313/hdl"incdir="../../../../project_1.srcs/sources_1/bd/Histo1/ipshared/4868"incdir="../../../../project_1.srcs/sources_1/bd/Histo1/ipshared/ec67/hdl"incdir="../../../../project_1.srcs/sources_1/bd/Histo1/ipshared/02c8/hdl/verilog"incdir="../../../../project_1.srcs/sources_1/bd/Histo1/ipshared/1313/hdl"
design_1_util_ds_buf_1_0.vhd,vhdl,xil_defaultlib,../../../bd/Histo1/ip/Histo1_ADC500MSPS_Controller_0_0/src/design_1_util_ds_buf_1_0/sim/design_1_util_ds_buf_1_0.vhd,incdir="../../../../project_1.srcs/sources_1/bd/Histo1/ipshared/4868"incdir="../../../../project_1.srcs/sources_1/bd/Histo1/ipshared/ec67/hdl"incdir="../../../../project_1.srcs/sources_1/bd/Histo1/ipshared/02c8/hdl/verilog"incdir="../../../../project_1.srcs/sources_1/bd/Histo1/ipshared/1313/hdl"incdir="../../../../project_1.srcs/sources_1/bd/Histo1/ipshared/4868"incdir="../../../../project_1.srcs/sources_1/bd/Histo1/ipshared/ec67/hdl"incdir="../../../../project_1.srcs/sources_1/bd/Histo1/ipshared/02c8/hdl/verilog"incdir="../../../../project_1.srcs/sources_1/bd/Histo1/ipshared/1313/hdl"
design_1_util_ds_buf_2_0.vhd,vhdl,xil_defaultlib,../../../bd/Histo1/ip/Histo1_ADC500MSPS_Controller_0_0/src/design_1_util_ds_buf_2_0/sim/design_1_util_ds_buf_2_0.vhd,incdir="../../../../project_1.srcs/sources_1/bd/Histo1/ipshared/4868"incdir="../../../../project_1.srcs/sources_1/bd/Histo1/ipshared/ec67/hdl"incdir="../../../../project_1.srcs/sources_1/bd/Histo1/ipshared/02c8/hdl/verilog"incdir="../../../../project_1.srcs/sources_1/bd/Histo1/ipshared/1313/hdl"incdir="../../../../project_1.srcs/sources_1/bd/Histo1/ipshared/4868"incdir="../../../../project_1.srcs/sources_1/bd/Histo1/ipshared/ec67/hdl"incdir="../../../../project_1.srcs/sources_1/bd/Histo1/ipshared/02c8/hdl/verilog"incdir="../../../../project_1.srcs/sources_1/bd/Histo1/ipshared/1313/hdl"
design_1_util_ds_buf_3_0.vhd,vhdl,xil_defaultlib,../../../bd/Histo1/ip/Histo1_ADC500MSPS_Controller_0_0/src/design_1_util_ds_buf_3_0/sim/design_1_util_ds_buf_3_0.vhd,incdir="../../../../project_1.srcs/sources_1/bd/Histo1/ipshared/4868"incdir="../../../../project_1.srcs/sources_1/bd/Histo1/ipshared/ec67/hdl"incdir="../../../../project_1.srcs/sources_1/bd/Histo1/ipshared/02c8/hdl/verilog"incdir="../../../../project_1.srcs/sources_1/bd/Histo1/ipshared/1313/hdl"incdir="../../../../project_1.srcs/sources_1/bd/Histo1/ipshared/4868"incdir="../../../../project_1.srcs/sources_1/bd/Histo1/ipshared/ec67/hdl"incdir="../../../../project_1.srcs/sources_1/bd/Histo1/ipshared/02c8/hdl/verilog"incdir="../../../../project_1.srcs/sources_1/bd/Histo1/ipshared/1313/hdl"
lib_cdc_v1_0_rfs.vhd,vhdl,lib_cdc_v1_0_2,../../../../project_1.srcs/sources_1/bd/Histo1/ipshared/ef1e/hdl/lib_cdc_v1_0_rfs.vhd,incdir="../../../../project_1.srcs/sources_1/bd/Histo1/ipshared/4868"incdir="../../../../project_1.srcs/sources_1/bd/Histo1/ipshared/ec67/hdl"incdir="../../../../project_1.srcs/sources_1/bd/Histo1/ipshared/02c8/hdl/verilog"incdir="../../../../project_1.srcs/sources_1/bd/Histo1/ipshared/1313/hdl"incdir="../../../../project_1.srcs/sources_1/bd/Histo1/ipshared/4868"incdir="../../../../project_1.srcs/sources_1/bd/Histo1/ipshared/ec67/hdl"incdir="../../../../project_1.srcs/sources_1/bd/Histo1/ipshared/02c8/hdl/verilog"incdir="../../../../project_1.srcs/sources_1/bd/Histo1/ipshared/1313/hdl"
proc_sys_reset_v5_0_vh_rfs.vhd,vhdl,proc_sys_reset_v5_0_12,../../../../project_1.srcs/sources_1/bd/Histo1/ipshared/f86a/hdl/proc_sys_reset_v5_0_vh_rfs.vhd,incdir="../../../../project_1.srcs/sources_1/bd/Histo1/ipshared/4868"incdir="../../../../project_1.srcs/sources_1/bd/Histo1/ipshared/ec67/hdl"incdir="../../../../project_1.srcs/sources_1/bd/Histo1/ipshared/02c8/hdl/verilog"incdir="../../../../project_1.srcs/sources_1/bd/Histo1/ipshared/1313/hdl"incdir="../../../../project_1.srcs/sources_1/bd/Histo1/ipshared/4868"incdir="../../../../project_1.srcs/sources_1/bd/Histo1/ipshared/ec67/hdl"incdir="../../../../project_1.srcs/sources_1/bd/Histo1/ipshared/02c8/hdl/verilog"incdir="../../../../project_1.srcs/sources_1/bd/Histo1/ipshared/1313/hdl"
design_1_proc_sys_reset_0_0.vhd,vhdl,xil_defaultlib,../../../bd/Histo1/ip/Histo1_ADC500MSPS_Controller_0_0/src/design_1_proc_sys_reset_0_0/sim/design_1_proc_sys_reset_0_0.vhd,incdir="../../../../project_1.srcs/sources_1/bd/Histo1/ipshared/4868"incdir="../../../../project_1.srcs/sources_1/bd/Histo1/ipshared/ec67/hdl"incdir="../../../../project_1.srcs/sources_1/bd/Histo1/ipshared/02c8/hdl/verilog"incdir="../../../../project_1.srcs/sources_1/bd/Histo1/ipshared/1313/hdl"incdir="../../../../project_1.srcs/sources_1/bd/Histo1/ipshared/4868"incdir="../../../../project_1.srcs/sources_1/bd/Histo1/ipshared/ec67/hdl"incdir="../../../../project_1.srcs/sources_1/bd/Histo1/ipshared/02c8/hdl/verilog"incdir="../../../../project_1.srcs/sources_1/bd/Histo1/ipshared/1313/hdl"
design_1_util_ds_buf_0_1.vhd,vhdl,xil_defaultlib,../../../bd/Histo1/ip/Histo1_ADC500MSPS_Controller_0_0/src/design_1_util_ds_buf_0_1/sim/design_1_util_ds_buf_0_1.vhd,incdir="../../../../project_1.srcs/sources_1/bd/Histo1/ipshared/4868"incdir="../../../../project_1.srcs/sources_1/bd/Histo1/ipshared/ec67/hdl"incdir="../../../../project_1.srcs/sources_1/bd/Histo1/ipshared/02c8/hdl/verilog"incdir="../../../../project_1.srcs/sources_1/bd/Histo1/ipshared/1313/hdl"incdir="../../../../project_1.srcs/sources_1/bd/Histo1/ipshared/4868"incdir="../../../../project_1.srcs/sources_1/bd/Histo1/ipshared/ec67/hdl"incdir="../../../../project_1.srcs/sources_1/bd/Histo1/ipshared/02c8/hdl/verilog"incdir="../../../../project_1.srcs/sources_1/bd/Histo1/ipshared/1313/hdl"
design_1_adc.vhd,vhdl,xil_defaultlib,../../../bd/Histo1/ipshared/899c/src/design_1_adc.vhd,incdir="../../../../project_1.srcs/sources_1/bd/Histo1/ipshared/4868"incdir="../../../../project_1.srcs/sources_1/bd/Histo1/ipshared/ec67/hdl"incdir="../../../../project_1.srcs/sources_1/bd/Histo1/ipshared/02c8/hdl/verilog"incdir="../../../../project_1.srcs/sources_1/bd/Histo1/ipshared/1313/hdl"incdir="../../../../project_1.srcs/sources_1/bd/Histo1/ipshared/4868"incdir="../../../../project_1.srcs/sources_1/bd/Histo1/ipshared/ec67/hdl"incdir="../../../../project_1.srcs/sources_1/bd/Histo1/ipshared/02c8/hdl/verilog"incdir="../../../../project_1.srcs/sources_1/bd/Histo1/ipshared/1313/hdl"
Histo1_ADC500MSPS_Controller_0_0.vhd,vhdl,xil_defaultlib,../../../bd/Histo1/ip/Histo1_ADC500MSPS_Controller_0_0/sim/Histo1_ADC500MSPS_Controller_0_0.vhd,incdir="../../../../project_1.srcs/sources_1/bd/Histo1/ipshared/4868"incdir="../../../../project_1.srcs/sources_1/bd/Histo1/ipshared/ec67/hdl"incdir="../../../../project_1.srcs/sources_1/bd/Histo1/ipshared/02c8/hdl/verilog"incdir="../../../../project_1.srcs/sources_1/bd/Histo1/ipshared/1313/hdl"incdir="../../../../project_1.srcs/sources_1/bd/Histo1/ipshared/4868"incdir="../../../../project_1.srcs/sources_1/bd/Histo1/ipshared/ec67/hdl"incdir="../../../../project_1.srcs/sources_1/bd/Histo1/ipshared/02c8/hdl/verilog"incdir="../../../../project_1.srcs/sources_1/bd/Histo1/ipshared/1313/hdl"
Decimate_N.vhd,vhdl,xil_defaultlib,../../../bd/Histo1/ipshared/a1e0/Decimate_N.vhd,incdir="../../../../project_1.srcs/sources_1/bd/Histo1/ipshared/4868"incdir="../../../../project_1.srcs/sources_1/bd/Histo1/ipshared/ec67/hdl"incdir="../../../../project_1.srcs/sources_1/bd/Histo1/ipshared/02c8/hdl/verilog"incdir="../../../../project_1.srcs/sources_1/bd/Histo1/ipshared/1313/hdl"incdir="../../../../project_1.srcs/sources_1/bd/Histo1/ipshared/4868"incdir="../../../../project_1.srcs/sources_1/bd/Histo1/ipshared/ec67/hdl"incdir="../../../../project_1.srcs/sources_1/bd/Histo1/ipshared/02c8/hdl/verilog"incdir="../../../../project_1.srcs/sources_1/bd/Histo1/ipshared/1313/hdl"
Decimate_by2.vhd,vhdl,xil_defaultlib,../../../bd/Histo1/ipshared/a1e0/Decimate_by2.vhd,incdir="../../../../project_1.srcs/sources_1/bd/Histo1/ipshared/4868"incdir="../../../../project_1.srcs/sources_1/bd/Histo1/ipshared/ec67/hdl"incdir="../../../../project_1.srcs/sources_1/bd/Histo1/ipshared/02c8/hdl/verilog"incdir="../../../../project_1.srcs/sources_1/bd/Histo1/ipshared/1313/hdl"incdir="../../../../project_1.srcs/sources_1/bd/Histo1/ipshared/4868"incdir="../../../../project_1.srcs/sources_1/bd/Histo1/ipshared/ec67/hdl"incdir="../../../../project_1.srcs/sources_1/bd/Histo1/ipshared/02c8/hdl/verilog"incdir="../../../../project_1.srcs/sources_1/bd/Histo1/ipshared/1313/hdl"
ADC_Decimator.vhd,vhdl,xil_defaultlib,../../../bd/Histo1/ipshared/a1e0/ADC_Decimator.vhd,incdir="../../../../project_1.srcs/sources_1/bd/Histo1/ipshared/4868"incdir="../../../../project_1.srcs/sources_1/bd/Histo1/ipshared/ec67/hdl"incdir="../../../../project_1.srcs/sources_1/bd/Histo1/ipshared/02c8/hdl/verilog"incdir="../../../../project_1.srcs/sources_1/bd/Histo1/ipshared/1313/hdl"incdir="../../../../project_1.srcs/sources_1/bd/Histo1/ipshared/4868"incdir="../../../../project_1.srcs/sources_1/bd/Histo1/ipshared/ec67/hdl"incdir="../../../../project_1.srcs/sources_1/bd/Histo1/ipshared/02c8/hdl/verilog"incdir="../../../../project_1.srcs/sources_1/bd/Histo1/ipshared/1313/hdl"
Histo1_ADC_Decimator_0_0.vhd,vhdl,xil_defaultlib,../../../bd/Histo1/ip/Histo1_ADC_Decimator_0_0/sim/Histo1_ADC_Decimator_0_0.vhd,incdir="../../../../project_1.srcs/sources_1/bd/Histo1/ipshared/4868"incdir="../../../../project_1.srcs/sources_1/bd/Histo1/ipshared/ec67/hdl"incdir="../../../../project_1.srcs/sources_1/bd/Histo1/ipshared/02c8/hdl/verilog"incdir="../../../../project_1.srcs/sources_1/bd/Histo1/ipshared/1313/hdl"incdir="../../../../project_1.srcs/sources_1/bd/Histo1/ipshared/4868"incdir="../../../../project_1.srcs/sources_1/bd/Histo1/ipshared/ec67/hdl"incdir="../../../../project_1.srcs/sources_1/bd/Histo1/ipshared/02c8/hdl/verilog"incdir="../../../../project_1.srcs/sources_1/bd/Histo1/ipshared/1313/hdl"
reg_block_v1_0_S00_AXI.vhd,vhdl,xil_defaultlib,../../../bd/Histo1/ipshared/b715/hdl/reg_block_v1_0_S00_AXI.vhd,incdir="../../../../project_1.srcs/sources_1/bd/Histo1/ipshared/4868"incdir="../../../../project_1.srcs/sources_1/bd/Histo1/ipshared/ec67/hdl"incdir="../../../../project_1.srcs/sources_1/bd/Histo1/ipshared/02c8/hdl/verilog"incdir="../../../../project_1.srcs/sources_1/bd/Histo1/ipshared/1313/hdl"incdir="../../../../project_1.srcs/sources_1/bd/Histo1/ipshared/4868"incdir="../../../../project_1.srcs/sources_1/bd/Histo1/ipshared/ec67/hdl"incdir="../../../../project_1.srcs/sources_1/bd/Histo1/ipshared/02c8/hdl/verilog"incdir="../../../../project_1.srcs/sources_1/bd/Histo1/ipshared/1313/hdl"
reg_block_v1_0.vhd,vhdl,xil_defaultlib,../../../bd/Histo1/ipshared/b715/hdl/reg_block_v1_0.vhd,incdir="../../../../project_1.srcs/sources_1/bd/Histo1/ipshared/4868"incdir="../../../../project_1.srcs/sources_1/bd/Histo1/ipshared/ec67/hdl"incdir="../../../../project_1.srcs/sources_1/bd/Histo1/ipshared/02c8/hdl/verilog"incdir="../../../../project_1.srcs/sources_1/bd/Histo1/ipshared/1313/hdl"incdir="../../../../project_1.srcs/sources_1/bd/Histo1/ipshared/4868"incdir="../../../../project_1.srcs/sources_1/bd/Histo1/ipshared/ec67/hdl"incdir="../../../../project_1.srcs/sources_1/bd/Histo1/ipshared/02c8/hdl/verilog"incdir="../../../../project_1.srcs/sources_1/bd/Histo1/ipshared/1313/hdl"
Histo1_reg_block_0_0.vhd,vhdl,xil_defaultlib,../../../bd/Histo1/ip/Histo1_reg_block_0_0/sim/Histo1_reg_block_0_0.vhd,incdir="../../../../project_1.srcs/sources_1/bd/Histo1/ipshared/4868"incdir="../../../../project_1.srcs/sources_1/bd/Histo1/ipshared/ec67/hdl"incdir="../../../../project_1.srcs/sources_1/bd/Histo1/ipshared/02c8/hdl/verilog"incdir="../../../../project_1.srcs/sources_1/bd/Histo1/ipshared/1313/hdl"incdir="../../../../project_1.srcs/sources_1/bd/Histo1/ipshared/4868"incdir="../../../../project_1.srcs/sources_1/bd/Histo1/ipshared/ec67/hdl"incdir="../../../../project_1.srcs/sources_1/bd/Histo1/ipshared/02c8/hdl/verilog"incdir="../../../../project_1.srcs/sources_1/bd/Histo1/ipshared/1313/hdl"
Histo1.vhd,vhdl,xil_defaultlib,../../../bd/Histo1/sim/Histo1.vhd,incdir="../../../../project_1.srcs/sources_1/bd/Histo1/ipshared/4868"incdir="../../../../project_1.srcs/sources_1/bd/Histo1/ipshared/ec67/hdl"incdir="../../../../project_1.srcs/sources_1/bd/Histo1/ipshared/02c8/hdl/verilog"incdir="../../../../project_1.srcs/sources_1/bd/Histo1/ipshared/1313/hdl"incdir="../../../../project_1.srcs/sources_1/bd/Histo1/ipshared/4868"incdir="../../../../project_1.srcs/sources_1/bd/Histo1/ipshared/ec67/hdl"incdir="../../../../project_1.srcs/sources_1/bd/Histo1/ipshared/02c8/hdl/verilog"incdir="../../../../project_1.srcs/sources_1/bd/Histo1/ipshared/1313/hdl"
histo_counter.vhd,vhdl,xil_defaultlib,../../../bd/Histo1/ipshared/b9df/src/histo_counter.vhd,incdir="../../../../project_1.srcs/sources_1/bd/Histo1/ipshared/4868"incdir="../../../../project_1.srcs/sources_1/bd/Histo1/ipshared/ec67/hdl"incdir="../../../../project_1.srcs/sources_1/bd/Histo1/ipshared/02c8/hdl/verilog"incdir="../../../../project_1.srcs/sources_1/bd/Histo1/ipshared/1313/hdl"incdir="../../../../project_1.srcs/sources_1/bd/Histo1/ipshared/4868"incdir="../../../../project_1.srcs/sources_1/bd/Histo1/ipshared/ec67/hdl"incdir="../../../../project_1.srcs/sources_1/bd/Histo1/ipshared/02c8/hdl/verilog"incdir="../../../../project_1.srcs/sources_1/bd/Histo1/ipshared/1313/hdl"
Histo1_histo_counter_0_0.vhd,vhdl,xil_defaultlib,../../../bd/Histo1/ip/Histo1_histo_counter_0_0/sim/Histo1_histo_counter_0_0.vhd,incdir="../../../../project_1.srcs/sources_1/bd/Histo1/ipshared/4868"incdir="../../../../project_1.srcs/sources_1/bd/Histo1/ipshared/ec67/hdl"incdir="../../../../project_1.srcs/sources_1/bd/Histo1/ipshared/02c8/hdl/verilog"incdir="../../../../project_1.srcs/sources_1/bd/Histo1/ipshared/1313/hdl"incdir="../../../../project_1.srcs/sources_1/bd/Histo1/ipshared/4868"incdir="../../../../project_1.srcs/sources_1/bd/Histo1/ipshared/ec67/hdl"incdir="../../../../project_1.srcs/sources_1/bd/Histo1/ipshared/02c8/hdl/verilog"incdir="../../../../project_1.srcs/sources_1/bd/Histo1/ipshared/1313/hdl"
xlslice_v1_0_vl_rfs.v,verilog,xlslice_v1_0_1,../../../../project_1.srcs/sources_1/bd/Histo1/ipshared/f3db/hdl/xlslice_v1_0_vl_rfs.v,incdir="../../../../project_1.srcs/sources_1/bd/Histo1/ipshared/4868"incdir="../../../../project_1.srcs/sources_1/bd/Histo1/ipshared/ec67/hdl"incdir="../../../../project_1.srcs/sources_1/bd/Histo1/ipshared/02c8/hdl/verilog"incdir="../../../../project_1.srcs/sources_1/bd/Histo1/ipshared/1313/hdl"incdir="../../../../project_1.srcs/sources_1/bd/Histo1/ipshared/4868"incdir="../../../../project_1.srcs/sources_1/bd/Histo1/ipshared/ec67/hdl"incdir="../../../../project_1.srcs/sources_1/bd/Histo1/ipshared/02c8/hdl/verilog"incdir="../../../../project_1.srcs/sources_1/bd/Histo1/ipshared/1313/hdl"
Histo1_xlslice_0_0.v,verilog,xil_defaultlib,../../../bd/Histo1/ip/Histo1_xlslice_0_0/sim/Histo1_xlslice_0_0.v,incdir="../../../../project_1.srcs/sources_1/bd/Histo1/ipshared/4868"incdir="../../../../project_1.srcs/sources_1/bd/Histo1/ipshared/ec67/hdl"incdir="../../../../project_1.srcs/sources_1/bd/Histo1/ipshared/02c8/hdl/verilog"incdir="../../../../project_1.srcs/sources_1/bd/Histo1/ipshared/1313/hdl"incdir="../../../../project_1.srcs/sources_1/bd/Histo1/ipshared/4868"incdir="../../../../project_1.srcs/sources_1/bd/Histo1/ipshared/ec67/hdl"incdir="../../../../project_1.srcs/sources_1/bd/Histo1/ipshared/02c8/hdl/verilog"incdir="../../../../project_1.srcs/sources_1/bd/Histo1/ipshared/1313/hdl"
Histo1_xlslice_0_1.v,verilog,xil_defaultlib,../../../bd/Histo1/ip/Histo1_xlslice_0_1/sim/Histo1_xlslice_0_1.v,incdir="../../../../project_1.srcs/sources_1/bd/Histo1/ipshared/4868"incdir="../../../../project_1.srcs/sources_1/bd/Histo1/ipshared/ec67/hdl"incdir="../../../../project_1.srcs/sources_1/bd/Histo1/ipshared/02c8/hdl/verilog"incdir="../../../../project_1.srcs/sources_1/bd/Histo1/ipshared/1313/hdl"incdir="../../../../project_1.srcs/sources_1/bd/Histo1/ipshared/4868"incdir="../../../../project_1.srcs/sources_1/bd/Histo1/ipshared/ec67/hdl"incdir="../../../../project_1.srcs/sources_1/bd/Histo1/ipshared/02c8/hdl/verilog"incdir="../../../../project_1.srcs/sources_1/bd/Histo1/ipshared/1313/hdl"
xlconcat_v2_1_vl_rfs.v,verilog,xlconcat_v2_1_1,../../../../project_1.srcs/sources_1/bd/Histo1/ipshared/2f66/hdl/xlconcat_v2_1_vl_rfs.v,incdir="../../../../project_1.srcs/sources_1/bd/Histo1/ipshared/4868"incdir="../../../../project_1.srcs/sources_1/bd/Histo1/ipshared/ec67/hdl"incdir="../../../../project_1.srcs/sources_1/bd/Histo1/ipshared/02c8/hdl/verilog"incdir="../../../../project_1.srcs/sources_1/bd/Histo1/ipshared/1313/hdl"incdir="../../../../project_1.srcs/sources_1/bd/Histo1/ipshared/4868"incdir="../../../../project_1.srcs/sources_1/bd/Histo1/ipshared/ec67/hdl"incdir="../../../../project_1.srcs/sources_1/bd/Histo1/ipshared/02c8/hdl/verilog"incdir="../../../../project_1.srcs/sources_1/bd/Histo1/ipshared/1313/hdl"
Histo1_xlconcat_0_0.v,verilog,xil_defaultlib,../../../bd/Histo1/ip/Histo1_xlconcat_0_0/sim/Histo1_xlconcat_0_0.v,incdir="../../../../project_1.srcs/sources_1/bd/Histo1/ipshared/4868"incdir="../../../../project_1.srcs/sources_1/bd/Histo1/ipshared/ec67/hdl"incdir="../../../../project_1.srcs/sources_1/bd/Histo1/ipshared/02c8/hdl/verilog"incdir="../../../../project_1.srcs/sources_1/bd/Histo1/ipshared/1313/hdl"incdir="../../../../project_1.srcs/sources_1/bd/Histo1/ipshared/4868"incdir="../../../../project_1.srcs/sources_1/bd/Histo1/ipshared/ec67/hdl"incdir="../../../../project_1.srcs/sources_1/bd/Histo1/ipshared/02c8/hdl/verilog"incdir="../../../../project_1.srcs/sources_1/bd/Histo1/ipshared/1313/hdl"
xlconstant_v1_1_vl_rfs.v,verilog,xlconstant_v1_1_3,../../../../project_1.srcs/sources_1/bd/Histo1/ipshared/0750/hdl/xlconstant_v1_1_vl_rfs.v,incdir="../../../../project_1.srcs/sources_1/bd/Histo1/ipshared/4868"incdir="../../../../project_1.srcs/sources_1/bd/Histo1/ipshared/ec67/hdl"incdir="../../../../project_1.srcs/sources_1/bd/Histo1/ipshared/02c8/hdl/verilog"incdir="../../../../project_1.srcs/sources_1/bd/Histo1/ipshared/1313/hdl"incdir="../../../../project_1.srcs/sources_1/bd/Histo1/ipshared/4868"incdir="../../../../project_1.srcs/sources_1/bd/Histo1/ipshared/ec67/hdl"incdir="../../../../project_1.srcs/sources_1/bd/Histo1/ipshared/02c8/hdl/verilog"incdir="../../../../project_1.srcs/sources_1/bd/Histo1/ipshared/1313/hdl"
Histo1_xlconstant_0_0.v,verilog,xil_defaultlib,../../../bd/Histo1/ip/Histo1_xlconstant_0_0/sim/Histo1_xlconstant_0_0.v,incdir="../../../../project_1.srcs/sources_1/bd/Histo1/ipshared/4868"incdir="../../../../project_1.srcs/sources_1/bd/Histo1/ipshared/ec67/hdl"incdir="../../../../project_1.srcs/sources_1/bd/Histo1/ipshared/02c8/hdl/verilog"incdir="../../../../project_1.srcs/sources_1/bd/Histo1/ipshared/1313/hdl"incdir="../../../../project_1.srcs/sources_1/bd/Histo1/ipshared/4868"incdir="../../../../project_1.srcs/sources_1/bd/Histo1/ipshared/ec67/hdl"incdir="../../../../project_1.srcs/sources_1/bd/Histo1/ipshared/02c8/hdl/verilog"incdir="../../../../project_1.srcs/sources_1/bd/Histo1/ipshared/1313/hdl"
Histo1_reg_bit_1_0.v,verilog,xil_defaultlib,../../../bd/Histo1/ip/Histo1_reg_bit_1_0/sim/Histo1_reg_bit_1_0.v,incdir="../../../../project_1.srcs/sources_1/bd/Histo1/ipshared/4868"incdir="../../../../project_1.srcs/sources_1/bd/Histo1/ipshared/ec67/hdl"incdir="../../../../project_1.srcs/sources_1/bd/Histo1/ipshared/02c8/hdl/verilog"incdir="../../../../project_1.srcs/sources_1/bd/Histo1/ipshared/1313/hdl"incdir="../../../../project_1.srcs/sources_1/bd/Histo1/ipshared/4868"incdir="../../../../project_1.srcs/sources_1/bd/Histo1/ipshared/ec67/hdl"incdir="../../../../project_1.srcs/sources_1/bd/Histo1/ipshared/02c8/hdl/verilog"incdir="../../../../project_1.srcs/sources_1/bd/Histo1/ipshared/1313/hdl"
Histo1_rst_ps7_0_100M_2.vhd,vhdl,xil_defaultlib,../../../bd/Histo1/ip/Histo1_rst_ps7_0_100M_2/sim/Histo1_rst_ps7_0_100M_2.vhd,incdir="../../../../project_1.srcs/sources_1/bd/Histo1/ipshared/4868"incdir="../../../../project_1.srcs/sources_1/bd/Histo1/ipshared/ec67/hdl"incdir="../../../../project_1.srcs/sources_1/bd/Histo1/ipshared/02c8/hdl/verilog"incdir="../../../../project_1.srcs/sources_1/bd/Histo1/ipshared/1313/hdl"incdir="../../../../project_1.srcs/sources_1/bd/Histo1/ipshared/4868"incdir="../../../../project_1.srcs/sources_1/bd/Histo1/ipshared/ec67/hdl"incdir="../../../../project_1.srcs/sources_1/bd/Histo1/ipshared/02c8/hdl/verilog"incdir="../../../../project_1.srcs/sources_1/bd/Histo1/ipshared/1313/hdl"
axi_infrastructure_v1_1_vl_rfs.v,verilog,axi_infrastructure_v1_1_0,../../../../project_1.srcs/sources_1/bd/Histo1/ipshared/ec67/hdl/axi_infrastructure_v1_1_vl_rfs.v,incdir="../../../../project_1.srcs/sources_1/bd/Histo1/ipshared/4868"incdir="../../../../project_1.srcs/sources_1/bd/Histo1/ipshared/ec67/hdl"incdir="../../../../project_1.srcs/sources_1/bd/Histo1/ipshared/02c8/hdl/verilog"incdir="../../../../project_1.srcs/sources_1/bd/Histo1/ipshared/1313/hdl"incdir="../../../../project_1.srcs/sources_1/bd/Histo1/ipshared/4868"incdir="../../../../project_1.srcs/sources_1/bd/Histo1/ipshared/ec67/hdl"incdir="../../../../project_1.srcs/sources_1/bd/Histo1/ipshared/02c8/hdl/verilog"incdir="../../../../project_1.srcs/sources_1/bd/Histo1/ipshared/1313/hdl"
sc_util_v1_0_vl_rfs.sv,systemverilog,smartconnect_v1_0,../../../../project_1.srcs/sources_1/bd/Histo1/ipshared/02c8/hdl/sc_util_v1_0_vl_rfs.sv,incdir="../../../../project_1.srcs/sources_1/bd/Histo1/ipshared/4868"incdir="../../../../project_1.srcs/sources_1/bd/Histo1/ipshared/ec67/hdl"incdir="../../../../project_1.srcs/sources_1/bd/Histo1/ipshared/02c8/hdl/verilog"incdir="../../../../project_1.srcs/sources_1/bd/Histo1/ipshared/1313/hdl"incdir="../../../../project_1.srcs/sources_1/bd/Histo1/ipshared/4868"incdir="../../../../project_1.srcs/sources_1/bd/Histo1/ipshared/ec67/hdl"incdir="../../../../project_1.srcs/sources_1/bd/Histo1/ipshared/02c8/hdl/verilog"incdir="../../../../project_1.srcs/sources_1/bd/Histo1/ipshared/1313/hdl"
axi_protocol_checker_v2_0_vl_rfs.sv,systemverilog,axi_protocol_checker_v2_0_1,../../../../project_1.srcs/sources_1/bd/Histo1/ipshared/3b24/hdl/axi_protocol_checker_v2_0_vl_rfs.sv,incdir="../../../../project_1.srcs/sources_1/bd/Histo1/ipshared/4868"incdir="../../../../project_1.srcs/sources_1/bd/Histo1/ipshared/ec67/hdl"incdir="../../../../project_1.srcs/sources_1/bd/Histo1/ipshared/02c8/hdl/verilog"incdir="../../../../project_1.srcs/sources_1/bd/Histo1/ipshared/1313/hdl"incdir="../../../../project_1.srcs/sources_1/bd/Histo1/ipshared/4868"incdir="../../../../project_1.srcs/sources_1/bd/Histo1/ipshared/ec67/hdl"incdir="../../../../project_1.srcs/sources_1/bd/Histo1/ipshared/02c8/hdl/verilog"incdir="../../../../project_1.srcs/sources_1/bd/Histo1/ipshared/1313/hdl"
axi_vip_v1_1_vl_rfs.sv,systemverilog,axi_vip_v1_1_1,../../../../project_1.srcs/sources_1/bd/Histo1/ipshared/a16a/hdl/axi_vip_v1_1_vl_rfs.sv,incdir="../../../../project_1.srcs/sources_1/bd/Histo1/ipshared/4868"incdir="../../../../project_1.srcs/sources_1/bd/Histo1/ipshared/ec67/hdl"incdir="../../../../project_1.srcs/sources_1/bd/Histo1/ipshared/02c8/hdl/verilog"incdir="../../../../project_1.srcs/sources_1/bd/Histo1/ipshared/1313/hdl"incdir="../../../../project_1.srcs/sources_1/bd/Histo1/ipshared/4868"incdir="../../../../project_1.srcs/sources_1/bd/Histo1/ipshared/ec67/hdl"incdir="../../../../project_1.srcs/sources_1/bd/Histo1/ipshared/02c8/hdl/verilog"incdir="../../../../project_1.srcs/sources_1/bd/Histo1/ipshared/1313/hdl"
processing_system7_vip_v1_0_vl_rfs.sv,systemverilog,processing_system7_vip_v1_0_3,../../../../project_1.srcs/sources_1/bd/Histo1/ipshared/1313/hdl/processing_system7_vip_v1_0_vl_rfs.sv,incdir="../../../../project_1.srcs/sources_1/bd/Histo1/ipshared/4868"incdir="../../../../project_1.srcs/sources_1/bd/Histo1/ipshared/ec67/hdl"incdir="../../../../project_1.srcs/sources_1/bd/Histo1/ipshared/02c8/hdl/verilog"incdir="../../../../project_1.srcs/sources_1/bd/Histo1/ipshared/1313/hdl"incdir="../../../../project_1.srcs/sources_1/bd/Histo1/ipshared/4868"incdir="../../../../project_1.srcs/sources_1/bd/Histo1/ipshared/ec67/hdl"incdir="../../../../project_1.srcs/sources_1/bd/Histo1/ipshared/02c8/hdl/verilog"incdir="../../../../project_1.srcs/sources_1/bd/Histo1/ipshared/1313/hdl"
Histo1_processing_system7_0_1.v,verilog,xil_defaultlib,../../../bd/Histo1/ip/Histo1_processing_system7_0_1/sim/Histo1_processing_system7_0_1.v,incdir="../../../../project_1.srcs/sources_1/bd/Histo1/ipshared/4868"incdir="../../../../project_1.srcs/sources_1/bd/Histo1/ipshared/ec67/hdl"incdir="../../../../project_1.srcs/sources_1/bd/Histo1/ipshared/02c8/hdl/verilog"incdir="../../../../project_1.srcs/sources_1/bd/Histo1/ipshared/1313/hdl"incdir="../../../../project_1.srcs/sources_1/bd/Histo1/ipshared/4868"incdir="../../../../project_1.srcs/sources_1/bd/Histo1/ipshared/ec67/hdl"incdir="../../../../project_1.srcs/sources_1/bd/Histo1/ipshared/02c8/hdl/verilog"incdir="../../../../project_1.srcs/sources_1/bd/Histo1/ipshared/1313/hdl"
generic_baseblocks_v2_1_vl_rfs.v,verilog,generic_baseblocks_v2_1_0,../../../../project_1.srcs/sources_1/bd/Histo1/ipshared/b752/hdl/generic_baseblocks_v2_1_vl_rfs.v,incdir="../../../../project_1.srcs/sources_1/bd/Histo1/ipshared/4868"incdir="../../../../project_1.srcs/sources_1/bd/Histo1/ipshared/ec67/hdl"incdir="../../../../project_1.srcs/sources_1/bd/Histo1/ipshared/02c8/hdl/verilog"incdir="../../../../project_1.srcs/sources_1/bd/Histo1/ipshared/1313/hdl"incdir="../../../../project_1.srcs/sources_1/bd/Histo1/ipshared/4868"incdir="../../../../project_1.srcs/sources_1/bd/Histo1/ipshared/ec67/hdl"incdir="../../../../project_1.srcs/sources_1/bd/Histo1/ipshared/02c8/hdl/verilog"incdir="../../../../project_1.srcs/sources_1/bd/Histo1/ipshared/1313/hdl"
axi_register_slice_v2_1_vl_rfs.v,verilog,axi_register_slice_v2_1_15,../../../../project_1.srcs/sources_1/bd/Histo1/ipshared/3ed1/hdl/axi_register_slice_v2_1_vl_rfs.v,incdir="../../../../project_1.srcs/sources_1/bd/Histo1/ipshared/4868"incdir="../../../../project_1.srcs/sources_1/bd/Histo1/ipshared/ec67/hdl"incdir="../../../../project_1.srcs/sources_1/bd/Histo1/ipshared/02c8/hdl/verilog"incdir="../../../../project_1.srcs/sources_1/bd/Histo1/ipshared/1313/hdl"incdir="../../../../project_1.srcs/sources_1/bd/Histo1/ipshared/4868"incdir="../../../../project_1.srcs/sources_1/bd/Histo1/ipshared/ec67/hdl"incdir="../../../../project_1.srcs/sources_1/bd/Histo1/ipshared/02c8/hdl/verilog"incdir="../../../../project_1.srcs/sources_1/bd/Histo1/ipshared/1313/hdl"
fifo_generator_vlog_beh.v,verilog,fifo_generator_v13_2_1,../../../../project_1.srcs/sources_1/bd/Histo1/ipshared/5c35/simulation/fifo_generator_vlog_beh.v,incdir="../../../../project_1.srcs/sources_1/bd/Histo1/ipshared/4868"incdir="../../../../project_1.srcs/sources_1/bd/Histo1/ipshared/ec67/hdl"incdir="../../../../project_1.srcs/sources_1/bd/Histo1/ipshared/02c8/hdl/verilog"incdir="../../../../project_1.srcs/sources_1/bd/Histo1/ipshared/1313/hdl"incdir="../../../../project_1.srcs/sources_1/bd/Histo1/ipshared/4868"incdir="../../../../project_1.srcs/sources_1/bd/Histo1/ipshared/ec67/hdl"incdir="../../../../project_1.srcs/sources_1/bd/Histo1/ipshared/02c8/hdl/verilog"incdir="../../../../project_1.srcs/sources_1/bd/Histo1/ipshared/1313/hdl"
fifo_generator_v13_2_rfs.vhd,vhdl,fifo_generator_v13_2_1,../../../../project_1.srcs/sources_1/bd/Histo1/ipshared/5c35/hdl/fifo_generator_v13_2_rfs.vhd,incdir="../../../../project_1.srcs/sources_1/bd/Histo1/ipshared/4868"incdir="../../../../project_1.srcs/sources_1/bd/Histo1/ipshared/ec67/hdl"incdir="../../../../project_1.srcs/sources_1/bd/Histo1/ipshared/02c8/hdl/verilog"incdir="../../../../project_1.srcs/sources_1/bd/Histo1/ipshared/1313/hdl"incdir="../../../../project_1.srcs/sources_1/bd/Histo1/ipshared/4868"incdir="../../../../project_1.srcs/sources_1/bd/Histo1/ipshared/ec67/hdl"incdir="../../../../project_1.srcs/sources_1/bd/Histo1/ipshared/02c8/hdl/verilog"incdir="../../../../project_1.srcs/sources_1/bd/Histo1/ipshared/1313/hdl"
fifo_generator_v13_2_rfs.v,verilog,fifo_generator_v13_2_1,../../../../project_1.srcs/sources_1/bd/Histo1/ipshared/5c35/hdl/fifo_generator_v13_2_rfs.v,incdir="../../../../project_1.srcs/sources_1/bd/Histo1/ipshared/4868"incdir="../../../../project_1.srcs/sources_1/bd/Histo1/ipshared/ec67/hdl"incdir="../../../../project_1.srcs/sources_1/bd/Histo1/ipshared/02c8/hdl/verilog"incdir="../../../../project_1.srcs/sources_1/bd/Histo1/ipshared/1313/hdl"incdir="../../../../project_1.srcs/sources_1/bd/Histo1/ipshared/4868"incdir="../../../../project_1.srcs/sources_1/bd/Histo1/ipshared/ec67/hdl"incdir="../../../../project_1.srcs/sources_1/bd/Histo1/ipshared/02c8/hdl/verilog"incdir="../../../../project_1.srcs/sources_1/bd/Histo1/ipshared/1313/hdl"
axi_data_fifo_v2_1_vl_rfs.v,verilog,axi_data_fifo_v2_1_14,../../../../project_1.srcs/sources_1/bd/Histo1/ipshared/9909/hdl/axi_data_fifo_v2_1_vl_rfs.v,incdir="../../../../project_1.srcs/sources_1/bd/Histo1/ipshared/4868"incdir="../../../../project_1.srcs/sources_1/bd/Histo1/ipshared/ec67/hdl"incdir="../../../../project_1.srcs/sources_1/bd/Histo1/ipshared/02c8/hdl/verilog"incdir="../../../../project_1.srcs/sources_1/bd/Histo1/ipshared/1313/hdl"incdir="../../../../project_1.srcs/sources_1/bd/Histo1/ipshared/4868"incdir="../../../../project_1.srcs/sources_1/bd/Histo1/ipshared/ec67/hdl"incdir="../../../../project_1.srcs/sources_1/bd/Histo1/ipshared/02c8/hdl/verilog"incdir="../../../../project_1.srcs/sources_1/bd/Histo1/ipshared/1313/hdl"
axi_crossbar_v2_1_vl_rfs.v,verilog,axi_crossbar_v2_1_16,../../../../project_1.srcs/sources_1/bd/Histo1/ipshared/c631/hdl/axi_crossbar_v2_1_vl_rfs.v,incdir="../../../../project_1.srcs/sources_1/bd/Histo1/ipshared/4868"incdir="../../../../project_1.srcs/sources_1/bd/Histo1/ipshared/ec67/hdl"incdir="../../../../project_1.srcs/sources_1/bd/Histo1/ipshared/02c8/hdl/verilog"incdir="../../../../project_1.srcs/sources_1/bd/Histo1/ipshared/1313/hdl"incdir="../../../../project_1.srcs/sources_1/bd/Histo1/ipshared/4868"incdir="../../../../project_1.srcs/sources_1/bd/Histo1/ipshared/ec67/hdl"incdir="../../../../project_1.srcs/sources_1/bd/Histo1/ipshared/02c8/hdl/verilog"incdir="../../../../project_1.srcs/sources_1/bd/Histo1/ipshared/1313/hdl"
Histo1_xbar_1.v,verilog,xil_defaultlib,../../../bd/Histo1/ip/Histo1_xbar_1/sim/Histo1_xbar_1.v,incdir="../../../../project_1.srcs/sources_1/bd/Histo1/ipshared/4868"incdir="../../../../project_1.srcs/sources_1/bd/Histo1/ipshared/ec67/hdl"incdir="../../../../project_1.srcs/sources_1/bd/Histo1/ipshared/02c8/hdl/verilog"incdir="../../../../project_1.srcs/sources_1/bd/Histo1/ipshared/1313/hdl"incdir="../../../../project_1.srcs/sources_1/bd/Histo1/ipshared/4868"incdir="../../../../project_1.srcs/sources_1/bd/Histo1/ipshared/ec67/hdl"incdir="../../../../project_1.srcs/sources_1/bd/Histo1/ipshared/02c8/hdl/verilog"incdir="../../../../project_1.srcs/sources_1/bd/Histo1/ipshared/1313/hdl"
blk_mem_gen_v8_3.v,verilog,blk_mem_gen_v8_3_6,../../../../project_1.srcs/sources_1/bd/Histo1/ipshared/2751/simulation/blk_mem_gen_v8_3.v,incdir="../../../../project_1.srcs/sources_1/bd/Histo1/ipshared/4868"incdir="../../../../project_1.srcs/sources_1/bd/Histo1/ipshared/ec67/hdl"incdir="../../../../project_1.srcs/sources_1/bd/Histo1/ipshared/02c8/hdl/verilog"incdir="../../../../project_1.srcs/sources_1/bd/Histo1/ipshared/1313/hdl"incdir="../../../../project_1.srcs/sources_1/bd/Histo1/ipshared/4868"incdir="../../../../project_1.srcs/sources_1/bd/Histo1/ipshared/ec67/hdl"incdir="../../../../project_1.srcs/sources_1/bd/Histo1/ipshared/02c8/hdl/verilog"incdir="../../../../project_1.srcs/sources_1/bd/Histo1/ipshared/1313/hdl"
axi_bram_ctrl_v4_0_rfs.vhd,vhdl,axi_bram_ctrl_v4_0_13,../../../../project_1.srcs/sources_1/bd/Histo1/ipshared/20fd/hdl/axi_bram_ctrl_v4_0_rfs.vhd,incdir="../../../../project_1.srcs/sources_1/bd/Histo1/ipshared/4868"incdir="../../../../project_1.srcs/sources_1/bd/Histo1/ipshared/ec67/hdl"incdir="../../../../project_1.srcs/sources_1/bd/Histo1/ipshared/02c8/hdl/verilog"incdir="../../../../project_1.srcs/sources_1/bd/Histo1/ipshared/1313/hdl"incdir="../../../../project_1.srcs/sources_1/bd/Histo1/ipshared/4868"incdir="../../../../project_1.srcs/sources_1/bd/Histo1/ipshared/ec67/hdl"incdir="../../../../project_1.srcs/sources_1/bd/Histo1/ipshared/02c8/hdl/verilog"incdir="../../../../project_1.srcs/sources_1/bd/Histo1/ipshared/1313/hdl"
Histo1_axi_bram_ctrl_0_1.vhd,vhdl,xil_defaultlib,../../../bd/Histo1/ip/Histo1_axi_bram_ctrl_0_1/sim/Histo1_axi_bram_ctrl_0_1.vhd,incdir="../../../../project_1.srcs/sources_1/bd/Histo1/ipshared/4868"incdir="../../../../project_1.srcs/sources_1/bd/Histo1/ipshared/ec67/hdl"incdir="../../../../project_1.srcs/sources_1/bd/Histo1/ipshared/02c8/hdl/verilog"incdir="../../../../project_1.srcs/sources_1/bd/Histo1/ipshared/1313/hdl"incdir="../../../../project_1.srcs/sources_1/bd/Histo1/ipshared/4868"incdir="../../../../project_1.srcs/sources_1/bd/Histo1/ipshared/ec67/hdl"incdir="../../../../project_1.srcs/sources_1/bd/Histo1/ipshared/02c8/hdl/verilog"incdir="../../../../project_1.srcs/sources_1/bd/Histo1/ipshared/1313/hdl"
blk_mem_gen_v8_4.v,verilog,blk_mem_gen_v8_4_1,../../../../project_1.srcs/sources_1/bd/Histo1/ipshared/67d8/simulation/blk_mem_gen_v8_4.v,incdir="../../../../project_1.srcs/sources_1/bd/Histo1/ipshared/4868"incdir="../../../../project_1.srcs/sources_1/bd/Histo1/ipshared/ec67/hdl"incdir="../../../../project_1.srcs/sources_1/bd/Histo1/ipshared/02c8/hdl/verilog"incdir="../../../../project_1.srcs/sources_1/bd/Histo1/ipshared/1313/hdl"incdir="../../../../project_1.srcs/sources_1/bd/Histo1/ipshared/4868"incdir="../../../../project_1.srcs/sources_1/bd/Histo1/ipshared/ec67/hdl"incdir="../../../../project_1.srcs/sources_1/bd/Histo1/ipshared/02c8/hdl/verilog"incdir="../../../../project_1.srcs/sources_1/bd/Histo1/ipshared/1313/hdl"
Histo1_blk_mem_gen_0_2.v,verilog,xil_defaultlib,../../../bd/Histo1/ip/Histo1_blk_mem_gen_0_2/sim/Histo1_blk_mem_gen_0_2.v,incdir="../../../../project_1.srcs/sources_1/bd/Histo1/ipshared/4868"incdir="../../../../project_1.srcs/sources_1/bd/Histo1/ipshared/ec67/hdl"incdir="../../../../project_1.srcs/sources_1/bd/Histo1/ipshared/02c8/hdl/verilog"incdir="../../../../project_1.srcs/sources_1/bd/Histo1/ipshared/1313/hdl"incdir="../../../../project_1.srcs/sources_1/bd/Histo1/ipshared/4868"incdir="../../../../project_1.srcs/sources_1/bd/Histo1/ipshared/ec67/hdl"incdir="../../../../project_1.srcs/sources_1/bd/Histo1/ipshared/02c8/hdl/verilog"incdir="../../../../project_1.srcs/sources_1/bd/Histo1/ipshared/1313/hdl"
Top.vhd,vhdl,xil_defaultlib,../../../bd/Histo1/ipshared/13cb/src/Top.vhd,incdir="../../../../project_1.srcs/sources_1/bd/Histo1/ipshared/4868"incdir="../../../../project_1.srcs/sources_1/bd/Histo1/ipshared/ec67/hdl"incdir="../../../../project_1.srcs/sources_1/bd/Histo1/ipshared/02c8/hdl/verilog"incdir="../../../../project_1.srcs/sources_1/bd/Histo1/ipshared/1313/hdl"incdir="../../../../project_1.srcs/sources_1/bd/Histo1/ipshared/4868"incdir="../../../../project_1.srcs/sources_1/bd/Histo1/ipshared/ec67/hdl"incdir="../../../../project_1.srcs/sources_1/bd/Histo1/ipshared/02c8/hdl/verilog"incdir="../../../../project_1.srcs/sources_1/bd/Histo1/ipshared/1313/hdl"
Histo1_SBRAM_wen_mgr_0_0.vhd,vhdl,xil_defaultlib,../../../bd/Histo1/ip/Histo1_SBRAM_wen_mgr_0_0/sim/Histo1_SBRAM_wen_mgr_0_0.vhd,incdir="../../../../project_1.srcs/sources_1/bd/Histo1/ipshared/4868"incdir="../../../../project_1.srcs/sources_1/bd/Histo1/ipshared/ec67/hdl"incdir="../../../../project_1.srcs/sources_1/bd/Histo1/ipshared/02c8/hdl/verilog"incdir="../../../../project_1.srcs/sources_1/bd/Histo1/ipshared/1313/hdl"incdir="../../../../project_1.srcs/sources_1/bd/Histo1/ipshared/4868"incdir="../../../../project_1.srcs/sources_1/bd/Histo1/ipshared/ec67/hdl"incdir="../../../../project_1.srcs/sources_1/bd/Histo1/ipshared/02c8/hdl/verilog"incdir="../../../../project_1.srcs/sources_1/bd/Histo1/ipshared/1313/hdl"
Histo1_xlconstant_1_0.v,verilog,xil_defaultlib,../../../bd/Histo1/ip/Histo1_xlconstant_1_0_3/sim/Histo1_xlconstant_1_0.v,incdir="../../../../project_1.srcs/sources_1/bd/Histo1/ipshared/4868"incdir="../../../../project_1.srcs/sources_1/bd/Histo1/ipshared/ec67/hdl"incdir="../../../../project_1.srcs/sources_1/bd/Histo1/ipshared/02c8/hdl/verilog"incdir="../../../../project_1.srcs/sources_1/bd/Histo1/ipshared/1313/hdl"incdir="../../../../project_1.srcs/sources_1/bd/Histo1/ipshared/4868"incdir="../../../../project_1.srcs/sources_1/bd/Histo1/ipshared/ec67/hdl"incdir="../../../../project_1.srcs/sources_1/bd/Histo1/ipshared/02c8/hdl/verilog"incdir="../../../../project_1.srcs/sources_1/bd/Histo1/ipshared/1313/hdl"
Histo1_addr_accond_0.v,verilog,xil_defaultlib,../../../../../../histo_w_comblock/histogram_rewriten/histogram_rewriten.srcs/sources_1/bd/Histo1/ip/Histo1_addr_accond_0_2/sim/Histo1_addr_accond_0.v,incdir="../../../../project_1.srcs/sources_1/bd/Histo1/ipshared/4868"incdir="../../../../project_1.srcs/sources_1/bd/Histo1/ipshared/ec67/hdl"incdir="../../../../project_1.srcs/sources_1/bd/Histo1/ipshared/02c8/hdl/verilog"incdir="../../../../project_1.srcs/sources_1/bd/Histo1/ipshared/1313/hdl"incdir="../../../../project_1.srcs/sources_1/bd/Histo1/ipshared/4868"incdir="../../../../project_1.srcs/sources_1/bd/Histo1/ipshared/ec67/hdl"incdir="../../../../project_1.srcs/sources_1/bd/Histo1/ipshared/02c8/hdl/verilog"incdir="../../../../project_1.srcs/sources_1/bd/Histo1/ipshared/1313/hdl"
Histo1_fifo_generator_0_1.v,verilog,xil_defaultlib,../../../bd/Histo1/ip/Histo1_fifo_generator_0_1/sim/Histo1_fifo_generator_0_1.v,incdir="../../../../project_1.srcs/sources_1/bd/Histo1/ipshared/4868"incdir="../../../../project_1.srcs/sources_1/bd/Histo1/ipshared/ec67/hdl"incdir="../../../../project_1.srcs/sources_1/bd/Histo1/ipshared/02c8/hdl/verilog"incdir="../../../../project_1.srcs/sources_1/bd/Histo1/ipshared/1313/hdl"incdir="../../../../project_1.srcs/sources_1/bd/Histo1/ipshared/4868"incdir="../../../../project_1.srcs/sources_1/bd/Histo1/ipshared/ec67/hdl"incdir="../../../../project_1.srcs/sources_1/bd/Histo1/ipshared/02c8/hdl/verilog"incdir="../../../../project_1.srcs/sources_1/bd/Histo1/ipshared/1313/hdl"
axi_lite_ipif_v3_0_vh_rfs.vhd,vhdl,axi_lite_ipif_v3_0_4,../../../../project_1.srcs/sources_1/bd/Histo1/ipshared/cced/hdl/axi_lite_ipif_v3_0_vh_rfs.vhd,incdir="../../../../project_1.srcs/sources_1/bd/Histo1/ipshared/4868"incdir="../../../../project_1.srcs/sources_1/bd/Histo1/ipshared/ec67/hdl"incdir="../../../../project_1.srcs/sources_1/bd/Histo1/ipshared/02c8/hdl/verilog"incdir="../../../../project_1.srcs/sources_1/bd/Histo1/ipshared/1313/hdl"incdir="../../../../project_1.srcs/sources_1/bd/Histo1/ipshared/4868"incdir="../../../../project_1.srcs/sources_1/bd/Histo1/ipshared/ec67/hdl"incdir="../../../../project_1.srcs/sources_1/bd/Histo1/ipshared/02c8/hdl/verilog"incdir="../../../../project_1.srcs/sources_1/bd/Histo1/ipshared/1313/hdl"
lib_pkg_v1_0_rfs.vhd,vhdl,lib_pkg_v1_0_2,../../../../project_1.srcs/sources_1/bd/Histo1/ipshared/0513/hdl/lib_pkg_v1_0_rfs.vhd,incdir="../../../../project_1.srcs/sources_1/bd/Histo1/ipshared/4868"incdir="../../../../project_1.srcs/sources_1/bd/Histo1/ipshared/ec67/hdl"incdir="../../../../project_1.srcs/sources_1/bd/Histo1/ipshared/02c8/hdl/verilog"incdir="../../../../project_1.srcs/sources_1/bd/Histo1/ipshared/1313/hdl"incdir="../../../../project_1.srcs/sources_1/bd/Histo1/ipshared/4868"incdir="../../../../project_1.srcs/sources_1/bd/Histo1/ipshared/ec67/hdl"incdir="../../../../project_1.srcs/sources_1/bd/Histo1/ipshared/02c8/hdl/verilog"incdir="../../../../project_1.srcs/sources_1/bd/Histo1/ipshared/1313/hdl"
lib_fifo_v1_0_rfs.vhd,vhdl,lib_fifo_v1_0_10,../../../../project_1.srcs/sources_1/bd/Histo1/ipshared/f10a/hdl/lib_fifo_v1_0_rfs.vhd,incdir="../../../../project_1.srcs/sources_1/bd/Histo1/ipshared/4868"incdir="../../../../project_1.srcs/sources_1/bd/Histo1/ipshared/ec67/hdl"incdir="../../../../project_1.srcs/sources_1/bd/Histo1/ipshared/02c8/hdl/verilog"incdir="../../../../project_1.srcs/sources_1/bd/Histo1/ipshared/1313/hdl"incdir="../../../../project_1.srcs/sources_1/bd/Histo1/ipshared/4868"incdir="../../../../project_1.srcs/sources_1/bd/Histo1/ipshared/ec67/hdl"incdir="../../../../project_1.srcs/sources_1/bd/Histo1/ipshared/02c8/hdl/verilog"incdir="../../../../project_1.srcs/sources_1/bd/Histo1/ipshared/1313/hdl"
axi_fifo_mm_s_v4_1_rfs.vhd,vhdl,axi_fifo_mm_s_v4_1_12,../../../../project_1.srcs/sources_1/bd/Histo1/ipshared/68a8/hdl/axi_fifo_mm_s_v4_1_rfs.vhd,incdir="../../../../project_1.srcs/sources_1/bd/Histo1/ipshared/4868"incdir="../../../../project_1.srcs/sources_1/bd/Histo1/ipshared/ec67/hdl"incdir="../../../../project_1.srcs/sources_1/bd/Histo1/ipshared/02c8/hdl/verilog"incdir="../../../../project_1.srcs/sources_1/bd/Histo1/ipshared/1313/hdl"incdir="../../../../project_1.srcs/sources_1/bd/Histo1/ipshared/4868"incdir="../../../../project_1.srcs/sources_1/bd/Histo1/ipshared/ec67/hdl"incdir="../../../../project_1.srcs/sources_1/bd/Histo1/ipshared/02c8/hdl/verilog"incdir="../../../../project_1.srcs/sources_1/bd/Histo1/ipshared/1313/hdl"
Histo1_axi_fifo_mm_s_0_1.vhd,vhdl,xil_defaultlib,../../../bd/Histo1/ip/Histo1_axi_fifo_mm_s_0_1/sim/Histo1_axi_fifo_mm_s_0_1.vhd,incdir="../../../../project_1.srcs/sources_1/bd/Histo1/ipshared/4868"incdir="../../../../project_1.srcs/sources_1/bd/Histo1/ipshared/ec67/hdl"incdir="../../../../project_1.srcs/sources_1/bd/Histo1/ipshared/02c8/hdl/verilog"incdir="../../../../project_1.srcs/sources_1/bd/Histo1/ipshared/1313/hdl"incdir="../../../../project_1.srcs/sources_1/bd/Histo1/ipshared/4868"incdir="../../../../project_1.srcs/sources_1/bd/Histo1/ipshared/ec67/hdl"incdir="../../../../project_1.srcs/sources_1/bd/Histo1/ipshared/02c8/hdl/verilog"incdir="../../../../project_1.srcs/sources_1/bd/Histo1/ipshared/1313/hdl"
interrupt_control_v3_1_vh_rfs.vhd,vhdl,interrupt_control_v3_1_4,../../../../project_1.srcs/sources_1/bd/Histo1/ipshared/8e66/hdl/interrupt_control_v3_1_vh_rfs.vhd,incdir="../../../../project_1.srcs/sources_1/bd/Histo1/ipshared/4868"incdir="../../../../project_1.srcs/sources_1/bd/Histo1/ipshared/ec67/hdl"incdir="../../../../project_1.srcs/sources_1/bd/Histo1/ipshared/02c8/hdl/verilog"incdir="../../../../project_1.srcs/sources_1/bd/Histo1/ipshared/1313/hdl"incdir="../../../../project_1.srcs/sources_1/bd/Histo1/ipshared/4868"incdir="../../../../project_1.srcs/sources_1/bd/Histo1/ipshared/ec67/hdl"incdir="../../../../project_1.srcs/sources_1/bd/Histo1/ipshared/02c8/hdl/verilog"incdir="../../../../project_1.srcs/sources_1/bd/Histo1/ipshared/1313/hdl"
axi_gpio_v2_0_vh_rfs.vhd,vhdl,axi_gpio_v2_0_17,../../../../project_1.srcs/sources_1/bd/Histo1/ipshared/c450/hdl/axi_gpio_v2_0_vh_rfs.vhd,incdir="../../../../project_1.srcs/sources_1/bd/Histo1/ipshared/4868"incdir="../../../../project_1.srcs/sources_1/bd/Histo1/ipshared/ec67/hdl"incdir="../../../../project_1.srcs/sources_1/bd/Histo1/ipshared/02c8/hdl/verilog"incdir="../../../../project_1.srcs/sources_1/bd/Histo1/ipshared/1313/hdl"incdir="../../../../project_1.srcs/sources_1/bd/Histo1/ipshared/4868"incdir="../../../../project_1.srcs/sources_1/bd/Histo1/ipshared/ec67/hdl"incdir="../../../../project_1.srcs/sources_1/bd/Histo1/ipshared/02c8/hdl/verilog"incdir="../../../../project_1.srcs/sources_1/bd/Histo1/ipshared/1313/hdl"
Histo1_axi_gpio_0_0.vhd,vhdl,xil_defaultlib,../../../bd/Histo1/ip/Histo1_axi_gpio_0_0/sim/Histo1_axi_gpio_0_0.vhd,incdir="../../../../project_1.srcs/sources_1/bd/Histo1/ipshared/4868"incdir="../../../../project_1.srcs/sources_1/bd/Histo1/ipshared/ec67/hdl"incdir="../../../../project_1.srcs/sources_1/bd/Histo1/ipshared/02c8/hdl/verilog"incdir="../../../../project_1.srcs/sources_1/bd/Histo1/ipshared/1313/hdl"incdir="../../../../project_1.srcs/sources_1/bd/Histo1/ipshared/4868"incdir="../../../../project_1.srcs/sources_1/bd/Histo1/ipshared/ec67/hdl"incdir="../../../../project_1.srcs/sources_1/bd/Histo1/ipshared/02c8/hdl/verilog"incdir="../../../../project_1.srcs/sources_1/bd/Histo1/ipshared/1313/hdl"
util_vector_logic_v2_0_vl_rfs.v,verilog,util_vector_logic_v2_0_1,../../../../project_1.srcs/sources_1/bd/Histo1/ipshared/2137/hdl/util_vector_logic_v2_0_vl_rfs.v,incdir="../../../../project_1.srcs/sources_1/bd/Histo1/ipshared/4868"incdir="../../../../project_1.srcs/sources_1/bd/Histo1/ipshared/ec67/hdl"incdir="../../../../project_1.srcs/sources_1/bd/Histo1/ipshared/02c8/hdl/verilog"incdir="../../../../project_1.srcs/sources_1/bd/Histo1/ipshared/1313/hdl"incdir="../../../../project_1.srcs/sources_1/bd/Histo1/ipshared/4868"incdir="../../../../project_1.srcs/sources_1/bd/Histo1/ipshared/ec67/hdl"incdir="../../../../project_1.srcs/sources_1/bd/Histo1/ipshared/02c8/hdl/verilog"incdir="../../../../project_1.srcs/sources_1/bd/Histo1/ipshared/1313/hdl"
Histo1_util_vector_logic_0_1.v,verilog,xil_defaultlib,../../../bd/Histo1/ip/Histo1_util_vector_logic_0_1/sim/Histo1_util_vector_logic_0_1.v,incdir="../../../../project_1.srcs/sources_1/bd/Histo1/ipshared/4868"incdir="../../../../project_1.srcs/sources_1/bd/Histo1/ipshared/ec67/hdl"incdir="../../../../project_1.srcs/sources_1/bd/Histo1/ipshared/02c8/hdl/verilog"incdir="../../../../project_1.srcs/sources_1/bd/Histo1/ipshared/1313/hdl"incdir="../../../../project_1.srcs/sources_1/bd/Histo1/ipshared/4868"incdir="../../../../project_1.srcs/sources_1/bd/Histo1/ipshared/ec67/hdl"incdir="../../../../project_1.srcs/sources_1/bd/Histo1/ipshared/02c8/hdl/verilog"incdir="../../../../project_1.srcs/sources_1/bd/Histo1/ipshared/1313/hdl"
sampler.vhd,vhdl,xil_defaultlib,../../../bd/Histo1/ipshared/e787/sampler.vhd,incdir="../../../../project_1.srcs/sources_1/bd/Histo1/ipshared/4868"incdir="../../../../project_1.srcs/sources_1/bd/Histo1/ipshared/ec67/hdl"incdir="../../../../project_1.srcs/sources_1/bd/Histo1/ipshared/02c8/hdl/verilog"incdir="../../../../project_1.srcs/sources_1/bd/Histo1/ipshared/1313/hdl"incdir="../../../../project_1.srcs/sources_1/bd/Histo1/ipshared/4868"incdir="../../../../project_1.srcs/sources_1/bd/Histo1/ipshared/ec67/hdl"incdir="../../../../project_1.srcs/sources_1/bd/Histo1/ipshared/02c8/hdl/verilog"incdir="../../../../project_1.srcs/sources_1/bd/Histo1/ipshared/1313/hdl"
Histo1_fifo_sampler_0_0.vhd,vhdl,xil_defaultlib,../../../bd/Histo1/ip/Histo1_fifo_sampler_0_0/sim/Histo1_fifo_sampler_0_0.vhd,incdir="../../../../project_1.srcs/sources_1/bd/Histo1/ipshared/4868"incdir="../../../../project_1.srcs/sources_1/bd/Histo1/ipshared/ec67/hdl"incdir="../../../../project_1.srcs/sources_1/bd/Histo1/ipshared/02c8/hdl/verilog"incdir="../../../../project_1.srcs/sources_1/bd/Histo1/ipshared/1313/hdl"incdir="../../../../project_1.srcs/sources_1/bd/Histo1/ipshared/4868"incdir="../../../../project_1.srcs/sources_1/bd/Histo1/ipshared/ec67/hdl"incdir="../../../../project_1.srcs/sources_1/bd/Histo1/ipshared/02c8/hdl/verilog"incdir="../../../../project_1.srcs/sources_1/bd/Histo1/ipshared/1313/hdl"
axi_protocol_converter_v2_1_vl_rfs.v,verilog,axi_protocol_converter_v2_1_15,../../../../project_1.srcs/sources_1/bd/Histo1/ipshared/ff69/hdl/axi_protocol_converter_v2_1_vl_rfs.v,incdir="../../../../project_1.srcs/sources_1/bd/Histo1/ipshared/4868"incdir="../../../../project_1.srcs/sources_1/bd/Histo1/ipshared/ec67/hdl"incdir="../../../../project_1.srcs/sources_1/bd/Histo1/ipshared/02c8/hdl/verilog"incdir="../../../../project_1.srcs/sources_1/bd/Histo1/ipshared/1313/hdl"incdir="../../../../project_1.srcs/sources_1/bd/Histo1/ipshared/4868"incdir="../../../../project_1.srcs/sources_1/bd/Histo1/ipshared/ec67/hdl"incdir="../../../../project_1.srcs/sources_1/bd/Histo1/ipshared/02c8/hdl/verilog"incdir="../../../../project_1.srcs/sources_1/bd/Histo1/ipshared/1313/hdl"
Histo1_auto_pc_2.v,verilog,xil_defaultlib,../../../bd/Histo1/ip/Histo1_auto_pc_2/sim/Histo1_auto_pc_2.v,incdir="../../../../project_1.srcs/sources_1/bd/Histo1/ipshared/4868"incdir="../../../../project_1.srcs/sources_1/bd/Histo1/ipshared/ec67/hdl"incdir="../../../../project_1.srcs/sources_1/bd/Histo1/ipshared/02c8/hdl/verilog"incdir="../../../../project_1.srcs/sources_1/bd/Histo1/ipshared/1313/hdl"incdir="../../../../project_1.srcs/sources_1/bd/Histo1/ipshared/4868"incdir="../../../../project_1.srcs/sources_1/bd/Histo1/ipshared/ec67/hdl"incdir="../../../../project_1.srcs/sources_1/bd/Histo1/ipshared/02c8/hdl/verilog"incdir="../../../../project_1.srcs/sources_1/bd/Histo1/ipshared/1313/hdl"
Histo1_auto_pc_1.v,verilog,xil_defaultlib,../../../bd/Histo1/ip/Histo1_auto_pc_1/sim/Histo1_auto_pc_1.v,incdir="../../../../project_1.srcs/sources_1/bd/Histo1/ipshared/4868"incdir="../../../../project_1.srcs/sources_1/bd/Histo1/ipshared/ec67/hdl"incdir="../../../../project_1.srcs/sources_1/bd/Histo1/ipshared/02c8/hdl/verilog"incdir="../../../../project_1.srcs/sources_1/bd/Histo1/ipshared/1313/hdl"incdir="../../../../project_1.srcs/sources_1/bd/Histo1/ipshared/4868"incdir="../../../../project_1.srcs/sources_1/bd/Histo1/ipshared/ec67/hdl"incdir="../../../../project_1.srcs/sources_1/bd/Histo1/ipshared/02c8/hdl/verilog"incdir="../../../../project_1.srcs/sources_1/bd/Histo1/ipshared/1313/hdl"
Histo1_auto_pc_0.v,verilog,xil_defaultlib,../../../bd/Histo1/ip/Histo1_auto_pc_0/sim/Histo1_auto_pc_0.v,incdir="../../../../project_1.srcs/sources_1/bd/Histo1/ipshared/4868"incdir="../../../../project_1.srcs/sources_1/bd/Histo1/ipshared/ec67/hdl"incdir="../../../../project_1.srcs/sources_1/bd/Histo1/ipshared/02c8/hdl/verilog"incdir="../../../../project_1.srcs/sources_1/bd/Histo1/ipshared/1313/hdl"incdir="../../../../project_1.srcs/sources_1/bd/Histo1/ipshared/4868"incdir="../../../../project_1.srcs/sources_1/bd/Histo1/ipshared/ec67/hdl"incdir="../../../../project_1.srcs/sources_1/bd/Histo1/ipshared/02c8/hdl/verilog"incdir="../../../../project_1.srcs/sources_1/bd/Histo1/ipshared/1313/hdl"
Histo1_auto_pc_3.v,verilog,xil_defaultlib,../../../bd/Histo1/ip/Histo1_auto_pc_3/sim/Histo1_auto_pc_3.v,incdir="../../../../project_1.srcs/sources_1/bd/Histo1/ipshared/4868"incdir="../../../../project_1.srcs/sources_1/bd/Histo1/ipshared/ec67/hdl"incdir="../../../../project_1.srcs/sources_1/bd/Histo1/ipshared/02c8/hdl/verilog"incdir="../../../../project_1.srcs/sources_1/bd/Histo1/ipshared/1313/hdl"incdir="../../../../project_1.srcs/sources_1/bd/Histo1/ipshared/4868"incdir="../../../../project_1.srcs/sources_1/bd/Histo1/ipshared/ec67/hdl"incdir="../../../../project_1.srcs/sources_1/bd/Histo1/ipshared/02c8/hdl/verilog"incdir="../../../../project_1.srcs/sources_1/bd/Histo1/ipshared/1313/hdl"
glbl.v,Verilog,xil_defaultlib,glbl.v
