Copyright 1986-2017 Xilinx, Inc. All Rights Reserved.
------------------------------------------------------------------------------------
| Tool Version : Vivado v.2017.4 (win64) Build 2086221 Fri Dec 15 20:55:39 MST 2017
| Date         : Tue Mar 13 12:12:57 2018
| Host         : HP6-MLAB-9 running 64-bit Service Pack 1  (build 7601)
| Command      : upgrade_ip
| Device       : xc7z020clg484-1
------------------------------------------------------------------------------------

Upgrade Log for IP 'Histo1_fifo_sampler_0_0'

1. Summary
----------

SUCCESS in the upgrade of Histo1_fifo_sampler_0_0 (ictp.it:user:fifo_sampler:1.0) from (Rev. 6) to (Rev. 7)






Copyright 1986-2017 Xilinx, Inc. All Rights Reserved.
------------------------------------------------------------------------------------
| Tool Version : Vivado v.2017.4 (win64) Build 2086221 Fri Dec 15 20:55:39 MST 2017
| Date         : Mon Mar 12 15:13:18 2018
| Host         : HP6-MLAB-9 running 64-bit Service Pack 1  (build 7601)
| Command      : upgrade_ip
| Device       : xc7z020clg484-1
------------------------------------------------------------------------------------

Upgrade Log for IP 'Histo1_fifo_sampler_0_0'

1. Summary
----------

SUCCESS in the upgrade of Histo1_fifo_sampler_0_0 (ictp.it:user:fifo_sampler:1.0) from (Rev. 5) to (Rev. 6)






Copyright 1986-2017 Xilinx, Inc. All Rights Reserved.
------------------------------------------------------------------------------------
| Tool Version : Vivado v.2017.4 (win64) Build 2086221 Fri Dec 15 20:55:39 MST 2017
| Date         : Mon Mar 12 14:49:50 2018
| Host         : HP6-MLAB-9 running 64-bit Service Pack 1  (build 7601)
| Command      : upgrade_ip
| Device       : xc7z020clg484-1
------------------------------------------------------------------------------------

Upgrade Log for IP 'Histo1_fifo_sampler_0_0'

1. Summary
----------

SUCCESS in the upgrade of Histo1_fifo_sampler_0_0 (ictp.it:user:fifo_sampler:1.0) from (Rev. 4) to (Rev. 5)






Copyright 1986-2017 Xilinx, Inc. All Rights Reserved.
------------------------------------------------------------------------------------
| Tool Version : Vivado v.2017.4 (win64) Build 2086221 Fri Dec 15 20:55:39 MST 2017
| Date         : Mon Mar 12 14:46:42 2018
| Host         : HP6-MLAB-9 running 64-bit Service Pack 1  (build 7601)
| Command      : upgrade_ip
| Device       : xc7z020clg484-1
------------------------------------------------------------------------------------

Upgrade Log for IP 'Histo1_fifo_sampler_0_0'

1. Summary
----------

SUCCESS in the conversion of Histo1_fifo_sampler_0_0 (ictp.it:user:fifo_sampler:1.0 (Rev. 4)) to Vivado generation flows.

